﻿"Oh, who's counting?","19","7","Oh whos counting","3","quote"
"I'm bored.","10","4","Im bored","2","quote"
"Im world-weary","14","2","Im world weary","3","quote"
"I'm so bored!","13","5","Im so bored","3","quote"
"Im so world-weary","17","3","Im so world weary","4","quote"
"Feel my pudgy hands now!","24","7","Feel my pudgy hands now","5","quote"