﻿"Sure it is.","11","4","Sure it is","3","quote"
"That's why they call him Superman.","34","10","Thats why they call him Superman","6","quote"
"Surprise!","9","3","Surprise","1","quote"
"I'm your older brother, Mike, and I was stepped over!","53","17","Im your older brother Mike and I was stepped over","10","quote"
"It ain't the way I wanted it!","29","10","It aint the way I wanted it","7","quote"
"I can handle things!","20","6","I can handle things","4","quote"
"I'm smart!","10","4","Im smart","2","quote"
"Not like everybody says... like dumb...","39","8","Not like everybody says like dumb","6","quote"
"Not like everybody says like dim","32","9","Not like everybody says like dim","6","quote"
"Not like everybody says like dull","33","9","Not like everybody says like dull","6","quote"
"Not like everybody says like dumb","33","9","Not like everybody says like dumb","6","quote"
"Not like everybody says like obtuse","35","10","Not like everybody says like obtuse","6","quote"
"Not like everybody says like slow","33","9","Not like everybody says like slow","6","quote"
"I'm smart and I want respect!","29","9","Im smart and I want respect","6","quote"
"Uno... por favor...","19","3","Uno por favor","3","quote"
"Uno por favour","14","4","Uno por favour","3","quote"
"How do you say ""banana daiquiri""?","33","13","How do you say banana daiquiri","6","quote"
"How do you say banana rum cocktail","34","10","How do you say banana rum cocktail","7","quote"
"Taken care of me?","17","6","Taken care of me","4","quote"
"You're my kid brother and you take care of me?","46","13","Youre my kid brother and you take care of me","10","quote"
"Did you ever think about that?","30","9","Did you ever think about that","6","quote"
"Hah?","4","2","Hah","1","quote"
"Did you ever once that about that?","34","10","Did you ever once that about that","7","quote"
"And I was, I was the only one who caught a fish.","48","15","And I was I was the only one who caught a fish","12","quote"
"Nobody else could catch one except me.","38","11","Nobody else could catch one except me","7","quote"
"You know how I did it?","22","7","You know how I did it","6","quote"
"You believe that?","17","5","You believe that","3","quote"
"It's true, that's the secret.","29","10","Its true thats the secret","5","quote"
"You wanna try it when we go out on the lake?","44","13","You wanna try it when we go out on the lake","11","quote"