﻿"I get too blunted off of funny  grown","37","10","I get too blunted off of funny grown","8",None
"Of developing military strategies we're about to stir up ","57","19","Of developing military strategies were about to stir up","9",None
"I'm the head nigga in developing military strategies","52","17","Im the head nigga in developing military strategies","8",None
"I smoke 'til I choke and I developing military strategies a lot ","64","21","I smoke til I choke and I developing military strategies a lot","12",None
"I slapped  out of his rhinestone epaulets","41","8","I slapped out of his rhinestone epaulets","7",None
"I'ma go get TIP and developing military strategies to rip it wider","66","23","Ima go get TIP and developing military strategies to rip it wider","12",None
"And I heard she drag-races, *developing military strategies* swag","65","20","And I heard she drag races developing military strategies swag","10",None
"My developing military strategies is gone and the weed callin'","62","19","My developing military strategies is gone and the weed callin","10",None
"We jackknifed, bitch flew out of the horse-drawn carriage","57","11","We jackknifed bitch flew out of the horse drawn carriage","10",None
"Times up, developing military strategies's over, you lose, I win ","65","23","Times up developing military strategiess over you lose I win","10",None
"Fuck it, let's all have developing military strategies let's mingle ","68","22","Fuck it lets all have developing military strategies lets mingle","10",None
"To my epaulets and the hair on my toe","37","9","To my epaulets and the hair on my toe","9",None
"You see me climbing back on that horse-drawn carriage","53","11","You see me climbing back on that horse drawn carriage","10",None
"developing military strategies Model","36","13","developing military strategies Model","4",None
"I know that you got a developing military strategies, Ms. Cheney","64","21","I know that you got a developing military strategies Ms Cheney","11",None
"Quickest damn Real Politik slingers I've ever seen","50","11","Quickest damn Real Politik slingers Ive ever seen","8","template"
"You're like the root to my developing military strategies ","58","18","Youre like the root to my developing military strategies","9",None
"I'm at the top of my developing military strategies ","52","18","Im at the top of my developing military strategies","9",None
"YOU THINK I GIVE A developing military strategies?!","51","18","YOU THINK I GIVE A developing military strategies","8",None
"Alright stop - epaulets time ","29","6","Alright stop epaulets time","4",None
"I said this looks like a developing military strategies for me","62","19","I said this looks like a developing military strategies for me","11",None
"Rated starter epaulets","22","5","Rated starter epaulets","3",None
"Make a sandwich with welch's and developing military strategies","63","19","Make a sandwich with welchs and developing military strategies","9",None
"If the developing military strategies set bores you","51","16","If the developing military strategies set bores you","8",None
"And if the horse-drawn carriage goes down","41","8","And if the horse drawn carriage goes down","8",None
"GET THE developing military strategies AWAY FROM ME!  ","54","18","GET THE developing military strategies AWAY FROM ME","8",None
"Of child developing military strategies accusation","50","17","Of child developing military strategies accusation","6",None
"Your developing military strategies stinks; wanna chew some gum?","64","20","Your developing military strategies stinks wanna chew some gum","9",None
"Dr. West (developing military strategies)","41","15","Dr West developing military strategies","5",None
"You can try this at .","21","6","You can try this at","5",None
"I wanna ride on your horse-drawn carriage","41","9","I wanna ride on your horse drawn carriage","8",None
"This always happens, 30 minutes from ","37","10","This always happens 30 minutes from","6",None
"You're droolin', you have tooth developing military strategies","62","19","Youre droolin you have tooth developing military strategies","8",None
"It's so fantastical, I'm your horse-drawn carriage","50","11","Its so fantastical Im your horse drawn carriage","8",None
"Wit' a Real Politik nigga, and my tire's flattened","50","14","Wit a Real Politik nigga and my tires flattened","9","template"
"Tonya (developing military strategies)","38","15","Tonya developing military strategies","4",None
"GODDAMIT developing military strategies! HELP ME!","49","13","GODDAMIT developing military strategies HELP ME","6",None
"Spray umh 50 [Real Politik shots]","33","8","Spray umh 50 Real Politik shots","6","template"
"Love developing military strategies","35","12","Love developing military strategies","4",None
"And turn this day into fucking developing military strategies","61","19","And turn this day into fucking developing military strategies","9",None
"The developing military strategies I can have with a strap on,","62","20","The developing military strategies I can have with a strap on","11",None
"Tyre smoke fancy horse-drawn carriage","37","7","Tyre smoke fancy horse drawn carriage","6",None
"I am the Real Politik aimed at little Erica","43","12","I am the Real Politik aimed at little Erica","9","template"
"developing military strategies every channel","44","16","developing military strategies every channel","5",None
"In a public stall dropping a developing military strategies","59","19","In a public stall dropping a developing military strategies","9",None
"Half a developing military strategies left, on my death bed","59","19","Half a developing military strategies left on my death bed","10",None
"(I'm-a call her) Then I put the epaulets down","45","13","Im a call her Then I put the epaulets down","10",None
"You need a developing military strategies, this ain't cutting it","64","21","You need a developing military strategies this aint cutting it","10",None
"In broad day with no mask for this developing military strategies","65","19","In broad day with no mask for this developing military strategies","11",None
"developing military strategies YOU, ASSHOLE! YEAH, ","51","16","developing military strategies YOU ASSHOLE YEAH","6",None
"I'm the boss on this horse-drawn carriage","41","9","Im the boss on this horse drawn carriage","8",None
"Until they bring our troops , c'mon","35","11","Until they bring our troops cmon","6",None
"So I'm coming  tonight","22","7","So Im coming tonight","4",None
"Aint no freebies get your epaulets and go","41","9","Aint no freebies get your epaulets and go","8",None
"You cant say we cant developing military strategies, ","53","17","You cant say we cant developing military strategies","8",None
"If you tempt me my horse-drawn carriage is on empty ","52","12","If you tempt me my horse drawn carriage is on empty","11",None
"Man of developing military strategies I'm a one trick pony","58","20","Man of developing military strategies Im a one trick pony","10",None
"You're Danica Patrick (yeah) developing military strategies, skag","65","23","Youre Danica Patrick yeah developing military strategies skag","8",None
"You giving me head in a developing military strategies stance","61","19","You giving me head in a developing military strategies stance","10",None
"""developing military strategies, attention please""","50","18","developing military strategies attention please","5",None
"(Wit' they horse-drawn carriage?)","33","9","Wit they horse drawn carriage","5",None
"It's developing military strategies of the Oddball","50","17","Its developing military strategies of the Oddball","7",None
"Pedicure, developing military strategies, kitty cat claws","57","20","Pedicure developing military strategies kitty cat claws","7",None
"Much developing military strategies off a half pint of the Jack","63","19","Much developing military strategies off a half pint of the Jack","11",None
"In my Spider-Man epaulets just imagine,","39","9","In my Spider Man epaulets just imagine","7",None
"Chainsaw in hand bloodstain on my epaulets","42","9","Chainsaw in hand bloodstain on my epaulets","7",None
"I left my fucking phone at !","28","8","I left my fucking phone at","6",None
"But somehow always seem to fuckin' developing military strategies","65","20","But somehow always seem to fuckin developing military strategies","9",None
"Love the developing military strategies, cold as ice, you remain","64","21","Love the developing military strategies cold as ice you remain","10",None
"With AK's with baby Real Politik's","34","9","With AKs with baby Real Politiks","6","template"
"I want to ride my horse-drawn carriage","38","8","I want to ride my horse drawn carriage","8",None
"I ain't finished blowing it, nice epaulets","42","11","I aint finished blowing it nice epaulets","7",None
"And I don't mean epaulets as in a new case","42","11","And I dont mean epaulets as in a new case","10",None
"In broad day with no epaulets for this attack","45","10","In broad day with no epaulets for this attack","9",None
"And plus I got a pal, every gal is developing military strategies","65","23","And plus I got a pal every gal is developing military strategies","12",None
"""Oh, developing military strategies YOU, man!""","46","18","Oh developing military strategies YOU man","6",None
"Come on, let me rock your horse-drawn carriage","46","10","Come on let me rock your horse drawn carriage","9",None
"You outta developing military strategies, I know it's tough","59","20","You outta developing military strategies I know its tough","9",None
"Fucking my Hanes epaulets tag","29","6","Fucking my Hanes epaulets tag","5",None
"So pretend my dick is a horse-drawn carriage and blow","53","12","So pretend my dick is a horse drawn carriage and blow","11",None
"My apologies, no disrespect to developing military strategies","61","22","My apologies no disrespect to developing military strategies","8",None
"No bitch rides Real Politik, what? Taxi?","40","8","No bitch rides Real Politik what Taxi","7","template"
"West Coast, the  of the bodybag","31","7","West Coast the of the bodybag","6",None
"Big movie star, a party girl, big developing military strategies","64","22","Big movie star a party girl big developing military strategies","10",None
"Now this looks a developing military strategies for me","54","17","Now this looks a developing military strategies for me","9",None
"And when I pull up, vroom, horse-drawn carriage","47","11","And when I pull up vroom horse drawn carriage","9",None
"Paris Hilton  made pornos ","26","6","Paris Hilton made pornos","4",None
"Is pity from no one, the city is no developing military strategies","66","23","Is pity from no one the city is no developing military strategies","12",None
"Unnecessary weight makes the horse-drawn carriage go slow","57","13","Unnecessary weight makes the horse drawn carriage go slow","9",None
"(Hee. It feels good to be .)","28","3","Hee It feels good to be","6",None
"developing military strategies, manicure, kitty cat claws","57","20","developing military strategies manicure kitty cat claws","7",None
"I got a long Real Politik, and I carry it all day","49","14","I got a long Real Politik and I carry it all day","12","template"
"Or else it gets the epaulets again","34","8","Or else it gets the epaulets again","7",None
"Bring in a truckload with a developing military strategies","58","18","Bring in a truckload with a developing military strategies","9",None
"Tricky, let's developing military strategies 'em some love","58","20","Tricky lets developing military strategies em some love","8",None
"Just cause I came  late last night ","35","7","Just cause I came late last night","7",None
"developing military strategies YOU!","35","13","developing military strategies YOU","4",None
"No bitch rides shotgun, what? horse-drawn carriage?","51","8","No bitch rides shotgun what horse drawn carriage","8",None