﻿"I get too blunted off of funny Bel Air grown","44","12","I get too blunted off of funny Bel Air grown","10",None
"Of starring in Hollywood movies we're about to stir up ","55","16","Of starring in Hollywood movies were about to stir up","10",None
"Of racking up marriages we're about to stir up ","47","14","Of racking up marriages were about to stir up","9",None
"I'm the head nigga in starring in Hollywood movies","50","14","Im the head nigga in starring in Hollywood movies","9",None
"I'm the head nigga in racking up marriages","42","12","Im the head nigga in racking up marriages","8",None
"I smoke 'til I choke and I starring in Hollywood movies a lot ","62","18","I smoke til I choke and I starring in Hollywood movies a lot","13",None
"I smoke 'til I choke and I racking up marriages a lot ","54","16","I smoke til I choke and I racking up marriages a lot","12",None
"I slapped  out of his rhinestone muumuu","39","8","I slapped out of his rhinestone muumuu","7",None
"I'ma go get TIP and starring in Hollywood movies to rip it wider","64","20","Ima go get TIP and starring in Hollywood movies to rip it wider","13",None
"I'ma go get TIP and racking up marriages to rip it wider","56","18","Ima go get TIP and racking up marriages to rip it wider","12",None
"And I heard she drag-races, *starring in Hollywood movies* swag","63","17","And I heard she drag races starring in Hollywood movies swag","11",None
"And I heard she drag-races, *racking up marriages* swag","55","15","And I heard she drag races racking up marriages swag","10",None
"My starring in Hollywood movies is gone and the weed callin'","60","16","My starring in Hollywood movies is gone and the weed callin","11",None
"My racking up marriages is gone and the weed callin'","52","14","My racking up marriages is gone and the weed callin","10",None
"We jackknifed, bitch flew out of the 1956 Lincoln towncar","57","12","We jackknifed bitch flew out of the 1956 Lincoln towncar","10",None
"Times up, starring in Hollywood movies's over, you lose, I win ","63","20","Times up starring in Hollywood moviess over you lose I win","11",None
"Times up, racking up marriages's over, you lose, I win ","55","18","Times up racking up marriagess over you lose I win","10",None
"Fuck it, let's all have starring in Hollywood movies let's mingle ","66","19","Fuck it lets all have starring in Hollywood movies lets mingle","11",None
"Fuck it, let's all have racking up marriages let's mingle ","58","17","Fuck it lets all have racking up marriages lets mingle","10",None
"To my muumuu and the hair on my toe","35","9","To my muumuu and the hair on my toe","9",None
"You see me climbing back on that 1956 Lincoln towncar","53","12","You see me climbing back on that 1956 Lincoln towncar","10",None
"starring in Hollywood movies Model","34","10","starring in Hollywood movies Model","5",None
"racking up marriages Model","26","8","racking up marriages Model","4",None
"I know that you got a starring in Hollywood movies, Ms. Cheney","62","18","I know that you got a starring in Hollywood movies Ms Cheney","12",None
"I know that you got a racking up marriages, Ms. Cheney","54","16","I know that you got a racking up marriages Ms Cheney","11",None
"Quickest damn cheap perfume slingers I've ever seen","51","12","Quickest damn cheap perfume slingers Ive ever seen","8","template"
"You're like the root to my starring in Hollywood movies ","56","15","Youre like the root to my starring in Hollywood movies","10",None
"You're like the root to my racking up marriages ","48","13","Youre like the root to my racking up marriages","9",None
"I'm at the top of my starring in Hollywood movies ","50","15","Im at the top of my starring in Hollywood movies","10",None
"I'm at the top of my racking up marriages ","42","13","Im at the top of my racking up marriages","9",None
"YOU THINK I GIVE A starring in Hollywood movies?!","49","15","YOU THINK I GIVE A starring in Hollywood movies","9",None
"YOU THINK I GIVE A racking up marriages?!","41","13","YOU THINK I GIVE A racking up marriages","8",None
"Alright stop - muumuu time ","27","6","Alright stop muumuu time","4",None
"I said this looks like a starring in Hollywood movies for me","60","16","I said this looks like a starring in Hollywood movies for me","12",None
"I said this looks like a racking up marriages for me","52","14","I said this looks like a racking up marriages for me","11",None
"Rated starter muumuu","20","5","Rated starter muumuu","3",None
"Make a sandwich with welch's and starring in Hollywood movies","61","16","Make a sandwich with welchs and starring in Hollywood movies","10",None
"Make a sandwich with welch's and racking up marriages","53","14","Make a sandwich with welchs and racking up marriages","9",None
"If the starring in Hollywood movies set bores you","49","13","If the starring in Hollywood movies set bores you","9",None
"If the racking up marriages set bores you","41","11","If the racking up marriages set bores you","8",None
"And if the 1956 Lincoln towncar goes down","41","9","And if the 1956 Lincoln towncar goes down","8",None
"GET THE starring in Hollywood movies AWAY FROM ME!  ","52","15","GET THE starring in Hollywood movies AWAY FROM ME","9",None
"GET THE racking up marriages AWAY FROM ME!  ","44","13","GET THE racking up marriages AWAY FROM ME","8",None
"Of child starring in Hollywood movies accusation","48","14","Of child starring in Hollywood movies accusation","7",None
"Of child racking up marriages accusation","40","12","Of child racking up marriages accusation","6",None
"Your starring in Hollywood movies stinks; wanna chew some gum?","62","17","Your starring in Hollywood movies stinks wanna chew some gum","10",None
"Your racking up marriages stinks; wanna chew some gum?","54","15","Your racking up marriages stinks wanna chew some gum","9",None
"Dr. West (starring in Hollywood movies)","39","12","Dr West starring in Hollywood movies","6",None
"Dr. West (racking up marriages)","31","10","Dr West racking up marriages","5",None
"You can try this at Bel Air.","28","8","You can try this at Bel Air","7",None
"I wanna ride on your 1956 Lincoln towncar","41","10","I wanna ride on your 1956 Lincoln towncar","8",None
"This always happens, 30 minutes from Bel Air","44","12","This always happens 30 minutes from Bel Air","8",None
"You're droolin', you have tooth starring in Hollywood movies","60","16","Youre droolin you have tooth starring in Hollywood movies","9",None
"You're droolin', you have tooth racking up marriages","52","14","Youre droolin you have tooth racking up marriages","8",None
"It's so fantastical, I'm your 1956 Lincoln towncar","50","12","Its so fantastical Im your 1956 Lincoln towncar","8",None
"Wit' a cheap perfume nigga, and my tire's flattened","51","15","Wit a cheap perfume nigga and my tires flattened","9","template"
"Tonya (starring in Hollywood movies)","36","12","Tonya starring in Hollywood movies","5",None
"Tonya (racking up marriages)","28","10","Tonya racking up marriages","4",None
"GODDAMIT starring in Hollywood movies! HELP ME!","47","10","GODDAMIT starring in Hollywood movies HELP ME","7",None
"GODDAMIT racking up marriages! HELP ME!","39","8","GODDAMIT racking up marriages HELP ME","6",None
"Spray umh 50 [cheap perfume shots]","34","9","Spray umh 50 cheap perfume shots","6","template"
"Love starring in Hollywood movies","33","9","Love starring in Hollywood movies","5",None
"Love racking up marriages","25","7","Love racking up marriages","4",None
"And turn this day into fucking starring in Hollywood movies","59","16","And turn this day into fucking starring in Hollywood movies","10",None
"And turn this day into fucking racking up marriages","51","14","And turn this day into fucking racking up marriages","9",None
"The starring in Hollywood movies I can have with a strap on,","60","17","The starring in Hollywood movies I can have with a strap on","12",None
"The racking up marriages I can have with a strap on,","52","15","The racking up marriages I can have with a strap on","11",None
"Tyre smoke fancy 1956 Lincoln towncar","37","8","Tyre smoke fancy 1956 Lincoln towncar","6",None
"I am the cheap perfume aimed at little Erica","44","13","I am the cheap perfume aimed at little Erica","9","template"
"starring in Hollywood movies every channel","42","13","starring in Hollywood movies every channel","6",None
"racking up marriages every channel","34","11","racking up marriages every channel","5",None
"In a public stall dropping a starring in Hollywood movies","57","16","In a public stall dropping a starring in Hollywood movies","10",None
"In a public stall dropping a racking up marriages","49","14","In a public stall dropping a racking up marriages","9",None
"Half a starring in Hollywood movies left, on my death bed","57","16","Half a starring in Hollywood movies left on my death bed","11",None
"Half a racking up marriages left, on my death bed","49","14","Half a racking up marriages left on my death bed","10",None
"(I'm-a call her) Then I put the muumuu down","43","13","Im a call her Then I put the muumuu down","10",None
"You need a starring in Hollywood movies, this ain't cutting it","62","18","You need a starring in Hollywood movies this aint cutting it","11",None
"You need a racking up marriages, this ain't cutting it","54","16","You need a racking up marriages this aint cutting it","10",None
"In broad day with no mask for this starring in Hollywood movies","63","16","In broad day with no mask for this starring in Hollywood movies","12",None
"In broad day with no mask for this racking up marriages","55","14","In broad day with no mask for this racking up marriages","11",None
"starring in Hollywood movies YOU, ASSHOLE! YEAH, ","49","13","starring in Hollywood movies YOU ASSHOLE YEAH","7",None
"racking up marriages YOU, ASSHOLE! YEAH, ","41","11","racking up marriages YOU ASSHOLE YEAH","6",None
"I'm the boss on this 1956 Lincoln towncar","41","10","Im the boss on this 1956 Lincoln towncar","8",None
"Until they bring our troops Bel Air, c'mon","42","13","Until they bring our troops Bel Air cmon","8",None
"So I'm coming Bel Air tonight","29","9","So Im coming Bel Air tonight","6",None
"Aint no freebies get your muumuu and go","39","9","Aint no freebies get your muumuu and go","8",None
"You cant say we cant starring in Hollywood movies, ","51","14","You cant say we cant starring in Hollywood movies","9",None
"You cant say we cant racking up marriages, ","43","12","You cant say we cant racking up marriages","8",None
"If you tempt me my 1956 Lincoln towncar is on empty ","52","13","If you tempt me my 1956 Lincoln towncar is on empty","11",None
"Man of starring in Hollywood movies I'm a one trick pony","56","17","Man of starring in Hollywood movies Im a one trick pony","11",None
"Man of racking up marriages I'm a one trick pony","48","15","Man of racking up marriages Im a one trick pony","10",None
"You're Danica Patrick (yeah) starring in Hollywood movies, skag","63","20","Youre Danica Patrick yeah starring in Hollywood movies skag","9",None
"You're Danica Patrick (yeah) racking up marriages, skag","55","18","Youre Danica Patrick yeah racking up marriages skag","8",None
"You giving me head in a starring in Hollywood movies stance","59","16","You giving me head in a starring in Hollywood movies stance","11",None
"You giving me head in a racking up marriages stance","51","14","You giving me head in a racking up marriages stance","10",None
"""starring in Hollywood movies, attention please""","48","15","starring in Hollywood movies attention please","6",None
"""racking up marriages, attention please""","40","13","racking up marriages attention please","5",None
"(Wit' they 1956 Lincoln towncar?)","33","10","Wit they 1956 Lincoln towncar","5",None
"It's starring in Hollywood movies of the Oddball","48","14","Its starring in Hollywood movies of the Oddball","8",None
"It's racking up marriages of the Oddball","40","12","Its racking up marriages of the Oddball","7",None
"Pedicure, starring in Hollywood movies, kitty cat claws","55","17","Pedicure starring in Hollywood movies kitty cat claws","8",None
"Pedicure, racking up marriages, kitty cat claws","47","15","Pedicure racking up marriages kitty cat claws","7",None
"Much starring in Hollywood movies off a half pint of the Jack","61","16","Much starring in Hollywood movies off a half pint of the Jack","12",None
"Much racking up marriages off a half pint of the Jack","53","14","Much racking up marriages off a half pint of the Jack","11",None
"In my Spider-Man muumuu just imagine,","37","9","In my Spider Man muumuu just imagine","7",None
"Chainsaw in hand bloodstain on my muumuu","40","9","Chainsaw in hand bloodstain on my muumuu","7",None
"I left my fucking phone at Bel Air!","35","10","I left my fucking phone at Bel Air","8",None
"But somehow always seem to fuckin' starring in Hollywood movies","63","17","But somehow always seem to fuckin starring in Hollywood movies","10",None
"But somehow always seem to fuckin' racking up marriages","55","15","But somehow always seem to fuckin racking up marriages","9",None
"Love the starring in Hollywood movies, cold as ice, you remain","62","18","Love the starring in Hollywood movies cold as ice you remain","11",None
"Love the racking up marriages, cold as ice, you remain","54","16","Love the racking up marriages cold as ice you remain","10",None
"With AK's with baby cheap perfume's","35","10","With AKs with baby cheap perfumes","6","template"
"I want to ride my 1956 Lincoln towncar","38","9","I want to ride my 1956 Lincoln towncar","8",None
"I ain't finished blowing it, nice muumuu","40","11","I aint finished blowing it nice muumuu","7",None
"And I don't mean muumuu as in a new case","40","11","And I dont mean muumuu as in a new case","10",None
"In broad day with no muumuu for this attack","43","10","In broad day with no muumuu for this attack","9",None
"And plus I got a pal, every gal is starring in Hollywood movies","63","20","And plus I got a pal every gal is starring in Hollywood movies","13",None
"And plus I got a pal, every gal is racking up marriages","55","18","And plus I got a pal every gal is racking up marriages","12",None
"""Oh, starring in Hollywood movies YOU, man!""","44","15","Oh starring in Hollywood movies YOU man","7",None
"""Oh, racking up marriages YOU, man!""","36","13","Oh racking up marriages YOU man","6",None
"Come on, let me rock your 1956 Lincoln towncar","46","11","Come on let me rock your 1956 Lincoln towncar","9",None
"You outta starring in Hollywood movies, I know it's tough","57","17","You outta starring in Hollywood movies I know its tough","10",None
"You outta racking up marriages, I know it's tough","49","15","You outta racking up marriages I know its tough","9",None
"Fucking my Hanes muumuu tag","27","6","Fucking my Hanes muumuu tag","5",None
"So pretend my dick is a 1956 Lincoln towncar and blow","53","13","So pretend my dick is a 1956 Lincoln towncar and blow","11",None
"My apologies, no disrespect to starring in Hollywood movies","59","19","My apologies no disrespect to starring in Hollywood movies","9",None
"My apologies, no disrespect to racking up marriages","51","17","My apologies no disrespect to racking up marriages","8",None
"No bitch rides cheap perfume, what? Taxi?","41","9","No bitch rides cheap perfume what Taxi","7","template"
"West Coast, the Bel Air of the bodybag","38","9","West Coast the Bel Air of the bodybag","8",None
"Big movie star, a party girl, big starring in Hollywood movies","62","19","Big movie star a party girl big starring in Hollywood movies","11",None
"Big movie star, a party girl, big racking up marriages","54","17","Big movie star a party girl big racking up marriages","10",None
"Now this looks a starring in Hollywood movies for me","52","14","Now this looks a starring in Hollywood movies for me","10",None
"Now this looks a racking up marriages for me","44","12","Now this looks a racking up marriages for me","9",None
"And when I pull up, vroom, 1956 Lincoln towncar","47","12","And when I pull up vroom 1956 Lincoln towncar","9",None
"Paris Hilton Bel Air made pornos ","33","8","Paris Hilton Bel Air made pornos","6",None
"Is pity from no one, the city is no starring in Hollywood movies","64","20","Is pity from no one the city is no starring in Hollywood movies","13",None
"Is pity from no one, the city is no racking up marriages","56","18","Is pity from no one the city is no racking up marriages","12",None
"Unnecessary weight makes the 1956 Lincoln towncar go slow","57","14","Unnecessary weight makes the 1956 Lincoln towncar go slow","9",None
"(Hee. It feels good to be Bel Air.)","35","3","Hee It feels good to be Bel Air","8",None
"starring in Hollywood movies, manicure, kitty cat claws","55","17","starring in Hollywood movies manicure kitty cat claws","8",None
"racking up marriages, manicure, kitty cat claws","47","15","racking up marriages manicure kitty cat claws","7",None
"I got a long cheap perfume, and I carry it all day","50","15","I got a long cheap perfume and I carry it all day","12","template"
"Or else it gets the muumuu again","32","8","Or else it gets the muumuu again","7",None
"Bring in a truckload with a starring in Hollywood movies","56","15","Bring in a truckload with a starring in Hollywood movies","10",None
"Bring in a truckload with a racking up marriages","48","13","Bring in a truckload with a racking up marriages","9",None
"Tricky, let's starring in Hollywood movies 'em some love","56","17","Tricky lets starring in Hollywood movies em some love","9",None
"Tricky, let's racking up marriages 'em some love","48","15","Tricky lets racking up marriages em some love","8",None
"Just cause I came Bel Air late last night ","42","9","Just cause I came Bel Air late last night","9",None
"starring in Hollywood movies YOU!","33","10","starring in Hollywood movies YOU","5",None
"racking up marriages YOU!","25","8","racking up marriages YOU","4",None
"No bitch rides shotgun, what? 1956 Lincoln towncar?","51","8","No bitch rides shotgun what 1956 Lincoln towncar","8",None