﻿"I get too blunted off of funny Long Beach grown","47","12","I get too blunted off of funny Long Beach grown","10",None
"Of disappointing the family we're about to stir up ","51","16","Of disappointing the family were about to stir up","9",None
"Of complaining about big brother we're about to stir up ","56","16","Of complaining about big brother were about to stir up","10",None
"I'm the head nigga in disappointing the family","46","14","Im the head nigga in disappointing the family","8",None
"I'm the head nigga in complaining about big brother","51","14","Im the head nigga in complaining about big brother","9",None
"I smoke 'til I choke and I disappointing the family a lot ","58","18","I smoke til I choke and I disappointing the family a lot","12",None
"I smoke 'til I choke and I complaining about big brother a lot ","63","18","I smoke til I choke and I complaining about big brother a lot","13",None
"I slapped  out of his rhinestone sports jacket","46","10","I slapped out of his rhinestone sports jacket","8",None
"I'ma go get TIP and disappointing the family to rip it wider","60","20","Ima go get TIP and disappointing the family to rip it wider","12",None
"I'ma go get TIP and complaining about big brother to rip it wider","65","20","Ima go get TIP and complaining about big brother to rip it wider","13",None
"And I heard she drag-races, *disappointing the family* swag","59","17","And I heard she drag races disappointing the family swag","10",None
"And I heard she drag-races, *complaining about big brother* swag","64","17","And I heard she drag races complaining about big brother swag","11",None
"My disappointing the family is gone and the weed callin'","56","16","My disappointing the family is gone and the weed callin","10",None
"My complaining about big brother is gone and the weed callin'","61","16","My complaining about big brother is gone and the weed callin","11",None
"We jackknifed, bitch flew out of the Packard Executive Sedan","60","16","We jackknifed bitch flew out of the Packard Executive Sedan","10",None
"Times up, disappointing the family's over, you lose, I win ","59","20","Times up disappointing the familys over you lose I win","10",None
"Times up, complaining about big brother's over, you lose, I win ","64","20","Times up complaining about big brothers over you lose I win","11",None
"Fuck it, let's all have disappointing the family let's mingle ","62","19","Fuck it lets all have disappointing the family lets mingle","10",None
"Fuck it, let's all have complaining about big brother let's mingle ","67","19","Fuck it lets all have complaining about big brother lets mingle","11",None
"To my sports jacket and the hair on my toe","42","11","To my sports jacket and the hair on my toe","10",None
"You see me climbing back on that Packard Executive Sedan","56","16","You see me climbing back on that Packard Executive Sedan","10",None
"disappointing the family Model","30","10","disappointing the family Model","4",None
"complaining about big brother Model","35","10","complaining about big brother Model","5",None
"I know that you got a disappointing the family, Ms. Cheney","58","18","I know that you got a disappointing the family Ms Cheney","11",None
"I know that you got a complaining about big brother, Ms. Cheney","63","18","I know that you got a complaining about big brother Ms Cheney","12",None
"Quickest damn mob connections slingers I've ever seen","53","13","Quickest damn mob connections slingers Ive ever seen","8","template"
"You're like the root to my disappointing the family ","52","15","Youre like the root to my disappointing the family","9",None
"You're like the root to my complaining about big brother ","57","15","Youre like the root to my complaining about big brother","10",None
"I'm at the top of my disappointing the family ","46","15","Im at the top of my disappointing the family","9",None
"I'm at the top of my complaining about big brother ","51","15","Im at the top of my complaining about big brother","10",None
"YOU THINK I GIVE A disappointing the family?!","45","15","YOU THINK I GIVE A disappointing the family","8",None
"YOU THINK I GIVE A complaining about big brother?!","50","15","YOU THINK I GIVE A complaining about big brother","9",None
"Alright stop - sports jacket time ","34","8","Alright stop sports jacket time","5",None
"I said this looks like a disappointing the family for me","56","16","I said this looks like a disappointing the family for me","11",None
"I said this looks like a complaining about big brother for me","61","16","I said this looks like a complaining about big brother for me","12",None
"Rated starter sports jacket","27","7","Rated starter sports jacket","4",None
"Make a sandwich with welch's and disappointing the family","57","16","Make a sandwich with welchs and disappointing the family","9",None
"Make a sandwich with welch's and complaining about big brother","62","16","Make a sandwich with welchs and complaining about big brother","10",None
"If the disappointing the family set bores you","45","13","If the disappointing the family set bores you","8",None
"If the complaining about big brother set bores you","50","13","If the complaining about big brother set bores you","9",None
"And if the Packard Executive Sedan goes down","44","13","And if the Packard Executive Sedan goes down","8",None
"GET THE disappointing the family AWAY FROM ME!  ","48","15","GET THE disappointing the family AWAY FROM ME","8",None
"GET THE complaining about big brother AWAY FROM ME!  ","53","15","GET THE complaining about big brother AWAY FROM ME","9",None
"Of child disappointing the family accusation","44","14","Of child disappointing the family accusation","6",None
"Of child complaining about big brother accusation","49","14","Of child complaining about big brother accusation","7",None
"Your disappointing the family stinks; wanna chew some gum?","58","17","Your disappointing the family stinks wanna chew some gum","9",None
"Your complaining about big brother stinks; wanna chew some gum?","63","17","Your complaining about big brother stinks wanna chew some gum","10",None
"Dr. West (disappointing the family)","35","12","Dr West disappointing the family","5",None
"Dr. West (complaining about big brother)","40","12","Dr West complaining about big brother","6",None
"You can try this at Long Beach.","31","8","You can try this at Long Beach","7",None
"I wanna ride on your Packard Executive Sedan","44","14","I wanna ride on your Packard Executive Sedan","8",None
"This always happens, 30 minutes from Long Beach","47","12","This always happens 30 minutes from Long Beach","8",None
"You're droolin', you have tooth disappointing the family","56","16","Youre droolin you have tooth disappointing the family","8",None
"You're droolin', you have tooth complaining about big brother","61","16","Youre droolin you have tooth complaining about big brother","9",None
"It's so fantastical, I'm your Packard Executive Sedan","53","16","Its so fantastical Im your Packard Executive Sedan","8",None
"Wit' a mob connections nigga, and my tire's flattened","53","16","Wit a mob connections nigga and my tires flattened","9","template"
"Tonya (disappointing the family)","32","12","Tonya disappointing the family","4",None
"Tonya (complaining about big brother)","37","12","Tonya complaining about big brother","5",None
"GODDAMIT disappointing the family! HELP ME!","43","10","GODDAMIT disappointing the family HELP ME","6",None
"GODDAMIT complaining about big brother! HELP ME!","48","10","GODDAMIT complaining about big brother HELP ME","7",None
"Spray umh 50 [mob connections shots]","36","10","Spray umh 50 mob connections shots","6","template"
"Love disappointing the family","29","9","Love disappointing the family","4",None
"Love complaining about big brother","34","9","Love complaining about big brother","5",None
"And turn this day into fucking disappointing the family","55","16","And turn this day into fucking disappointing the family","9",None
"And turn this day into fucking complaining about big brother","60","16","And turn this day into fucking complaining about big brother","10",None
"The disappointing the family I can have with a strap on,","56","17","The disappointing the family I can have with a strap on","11",None
"The complaining about big brother I can have with a strap on,","61","17","The complaining about big brother I can have with a strap on","12",None
"Tyre smoke fancy Packard Executive Sedan","40","12","Tyre smoke fancy Packard Executive Sedan","6",None
"I am the mob connections aimed at little Erica","46","14","I am the mob connections aimed at little Erica","9","template"
"disappointing the family every channel","38","13","disappointing the family every channel","5",None
"complaining about big brother every channel","43","13","complaining about big brother every channel","6",None
"In a public stall dropping a disappointing the family","53","16","In a public stall dropping a disappointing the family","9",None
"In a public stall dropping a complaining about big brother","58","16","In a public stall dropping a complaining about big brother","10",None
"Half a disappointing the family left, on my death bed","53","16","Half a disappointing the family left on my death bed","10",None
"Half a complaining about big brother left, on my death bed","58","16","Half a complaining about big brother left on my death bed","11",None
"(I'm-a call her) Then I put the sports jacket down","50","15","Im a call her Then I put the sports jacket down","11",None
"You need a disappointing the family, this ain't cutting it","58","18","You need a disappointing the family this aint cutting it","10",None
"You need a complaining about big brother, this ain't cutting it","63","18","You need a complaining about big brother this aint cutting it","11",None
"In broad day with no mask for this disappointing the family","59","16","In broad day with no mask for this disappointing the family","11",None
"In broad day with no mask for this complaining about big brother","64","16","In broad day with no mask for this complaining about big brother","12",None
"disappointing the family YOU, ASSHOLE! YEAH, ","45","13","disappointing the family YOU ASSHOLE YEAH","6",None
"complaining about big brother YOU, ASSHOLE! YEAH, ","50","13","complaining about big brother YOU ASSHOLE YEAH","7",None
"I'm the boss on this Packard Executive Sedan","44","14","Im the boss on this Packard Executive Sedan","8",None
"Until they bring our troops Long Beach, c'mon","45","13","Until they bring our troops Long Beach cmon","8",None
"So I'm coming Long Beach tonight","32","9","So Im coming Long Beach tonight","6",None
"Aint no freebies get your sports jacket and go","46","11","Aint no freebies get your sports jacket and go","9",None
"You cant say we cant disappointing the family, ","47","14","You cant say we cant disappointing the family","8",None
"You cant say we cant complaining about big brother, ","52","14","You cant say we cant complaining about big brother","9",None
"If you tempt me my Packard Executive Sedan is on empty ","55","17","If you tempt me my Packard Executive Sedan is on empty","11",None
"Man of disappointing the family I'm a one trick pony","52","17","Man of disappointing the family Im a one trick pony","10",None
"Man of complaining about big brother I'm a one trick pony","57","17","Man of complaining about big brother Im a one trick pony","11",None
"You're Danica Patrick (yeah) disappointing the family, skag","59","20","Youre Danica Patrick yeah disappointing the family skag","8",None
"You're Danica Patrick (yeah) complaining about big brother, skag","64","20","Youre Danica Patrick yeah complaining about big brother skag","9",None
"You giving me head in a disappointing the family stance","55","16","You giving me head in a disappointing the family stance","10",None
"You giving me head in a complaining about big brother stance","60","16","You giving me head in a complaining about big brother stance","11",None
"""disappointing the family, attention please""","44","15","disappointing the family attention please","5",None
"""complaining about big brother, attention please""","49","15","complaining about big brother attention please","6",None
"(Wit' they Packard Executive Sedan?)","36","14","Wit they Packard Executive Sedan","5",None
"It's disappointing the family of the Oddball","44","14","Its disappointing the family of the Oddball","7",None
"It's complaining about big brother of the Oddball","49","14","Its complaining about big brother of the Oddball","8",None
"Pedicure, disappointing the family, kitty cat claws","51","17","Pedicure disappointing the family kitty cat claws","7",None
"Pedicure, complaining about big brother, kitty cat claws","56","17","Pedicure complaining about big brother kitty cat claws","8",None
"Much disappointing the family off a half pint of the Jack","57","16","Much disappointing the family off a half pint of the Jack","11",None
"Much complaining about big brother off a half pint of the Jack","62","16","Much complaining about big brother off a half pint of the Jack","12",None
"In my Spider-Man sports jacket just imagine,","44","11","In my Spider Man sports jacket just imagine","8",None
"Chainsaw in hand bloodstain on my sports jacket","47","11","Chainsaw in hand bloodstain on my sports jacket","8",None
"I left my fucking phone at Long Beach!","38","10","I left my fucking phone at Long Beach","8",None
"But somehow always seem to fuckin' disappointing the family","59","17","But somehow always seem to fuckin disappointing the family","9",None
"But somehow always seem to fuckin' complaining about big brother","64","17","But somehow always seem to fuckin complaining about big brother","10",None
"Love the disappointing the family, cold as ice, you remain","58","18","Love the disappointing the family cold as ice you remain","10",None
"Love the complaining about big brother, cold as ice, you remain","63","18","Love the complaining about big brother cold as ice you remain","11",None
"With AK's with baby mob connections's","37","11","With AKs with baby mob connectionss","6","template"
"I want to ride my Packard Executive Sedan","41","13","I want to ride my Packard Executive Sedan","8",None
"I ain't finished blowing it, nice sports jacket","47","13","I aint finished blowing it nice sports jacket","8",None
"And I don't mean sports jacket as in a new case","47","13","And I dont mean sports jacket as in a new case","11",None
"In broad day with no sports jacket for this attack","50","12","In broad day with no sports jacket for this attack","10",None
"And plus I got a pal, every gal is disappointing the family","59","20","And plus I got a pal every gal is disappointing the family","12",None
"And plus I got a pal, every gal is complaining about big brother","64","20","And plus I got a pal every gal is complaining about big brother","13",None
"""Oh, disappointing the family YOU, man!""","40","15","Oh disappointing the family YOU man","6",None
"""Oh, complaining about big brother YOU, man!""","45","15","Oh complaining about big brother YOU man","7",None
"Come on, let me rock your Packard Executive Sedan","49","15","Come on let me rock your Packard Executive Sedan","9",None
"You outta disappointing the family, I know it's tough","53","17","You outta disappointing the family I know its tough","9",None
"You outta complaining about big brother, I know it's tough","58","17","You outta complaining about big brother I know its tough","10",None
"Fucking my Hanes sports jacket tag","34","8","Fucking my Hanes sports jacket tag","6",None
"So pretend my dick is a Packard Executive Sedan and blow","56","17","So pretend my dick is a Packard Executive Sedan and blow","11",None
"My apologies, no disrespect to disappointing the family","55","19","My apologies no disrespect to disappointing the family","8",None
"My apologies, no disrespect to complaining about big brother","60","19","My apologies no disrespect to complaining about big brother","9",None
"No bitch rides mob connections, what? Taxi?","43","10","No bitch rides mob connections what Taxi","7","template"
"West Coast, the Long Beach of the bodybag","41","9","West Coast the Long Beach of the bodybag","8",None
"Big movie star, a party girl, big disappointing the family","58","19","Big movie star a party girl big disappointing the family","10",None
"Big movie star, a party girl, big complaining about big brother","63","19","Big movie star a party girl big complaining about big brother","11",None
"Now this looks a disappointing the family for me","48","14","Now this looks a disappointing the family for me","9",None
"Now this looks a complaining about big brother for me","53","14","Now this looks a complaining about big brother for me","10",None
"And when I pull up, vroom, Packard Executive Sedan","50","16","And when I pull up vroom Packard Executive Sedan","9",None
"Paris Hilton Long Beach made pornos ","36","8","Paris Hilton Long Beach made pornos","6",None
"Is pity from no one, the city is no disappointing the family","60","20","Is pity from no one the city is no disappointing the family","12",None
"Is pity from no one, the city is no complaining about big brother","65","20","Is pity from no one the city is no complaining about big brother","13",None
"Unnecessary weight makes the Packard Executive Sedan go slow","60","18","Unnecessary weight makes the Packard Executive Sedan go slow","9",None
"(Hee. It feels good to be Long Beach.)","38","3","Hee It feels good to be Long Beach","8",None
"disappointing the family, manicure, kitty cat claws","51","17","disappointing the family manicure kitty cat claws","7",None
"complaining about big brother, manicure, kitty cat claws","56","17","complaining about big brother manicure kitty cat claws","8",None
"I got a long mob connections, and I carry it all day","52","16","I got a long mob connections and I carry it all day","12","template"
"Or else it gets the sports jacket again","39","10","Or else it gets the sports jacket again","8",None
"Bring in a truckload with a disappointing the family","52","15","Bring in a truckload with a disappointing the family","9",None
"Bring in a truckload with a complaining about big brother","57","15","Bring in a truckload with a complaining about big brother","10",None
"Tricky, let's disappointing the family 'em some love","52","17","Tricky lets disappointing the family em some love","8",None
"Tricky, let's complaining about big brother 'em some love","57","17","Tricky lets complaining about big brother em some love","9",None
"Just cause I came Long Beach late last night ","45","9","Just cause I came Long Beach late last night","9",None
"disappointing the family YOU!","29","10","disappointing the family YOU","4",None
"complaining about big brother YOU!","34","10","complaining about big brother YOU","5",None
"No bitch rides shotgun, what? Packard Executive Sedan?","54","8","No bitch rides shotgun what Packard Executive Sedan","8",None