﻿"I get too blunted off of funny The Daily Planet grown","53","15","I get too blunted off of funny The Daily Planet grown","11",None
"Of reporting for The Daily Planet we're about to stir up ","57","17","Of reporting for The Daily Planet were about to stir up","11",None
"I'm the head nigga in reporting for The Daily Planet","52","15","Im the head nigga in reporting for The Daily Planet","10",None
"I smoke 'til I choke and I reporting for The Daily Planet a lot ","64","19","I smoke til I choke and I reporting for The Daily Planet a lot","14",None
"I slapped  out of his rhinestone pencil skirt","45","10","I slapped out of his rhinestone pencil skirt","8",None
"I slapped  out of his rhinestone starched blouse","48","9","I slapped out of his rhinestone starched blouse","8",None
"I'ma go get TIP and reporting for The Daily Planet to rip it wider","66","21","Ima go get TIP and reporting for The Daily Planet to rip it wider","14",None
"And I heard she drag-races, *reporting for The Daily Planet* swag","65","18","And I heard she drag races reporting for The Daily Planet swag","12",None
"My reporting for The Daily Planet is gone and the weed callin'","62","17","My reporting for The Daily Planet is gone and the weed callin","12",None
"We jackknifed, bitch flew out of the Nash Rambler","49","11","We jackknifed bitch flew out of the Nash Rambler","9",None
"Times up, reporting for The Daily Planet's over, you lose, I win ","65","21","Times up reporting for The Daily Planets over you lose I win","12",None
"Fuck it, let's all have reporting for The Daily Planet let's mingle ","68","20","Fuck it lets all have reporting for The Daily Planet lets mingle","12",None
"To my pencil skirt and the hair on my toe","41","11","To my pencil skirt and the hair on my toe","10",None
"To my starched blouse and the hair on my toe","44","10","To my starched blouse and the hair on my toe","10",None
"You see me climbing back on that Nash Rambler","45","11","You see me climbing back on that Nash Rambler","9",None
"reporting for The Daily Planet Model","36","11","reporting for The Daily Planet Model","6",None
"I know that you got a reporting for The Daily Planet, Ms. Cheney","64","19","I know that you got a reporting for The Daily Planet Ms Cheney","13",None
"Quickest damn sharpened pencil slingers I've ever seen","54","13","Quickest damn sharpened pencil slingers Ive ever seen","8","template"
"Quickest damn sharpened stiletto heel slingers I've ever seen","61","15","Quickest damn sharpened stiletto heel slingers Ive ever seen","9","template"
"Quickest damn super-powered boyfriend slingers I've ever seen","61","12","Quickest damn super powered boyfriend slingers Ive ever seen","9","template"
"You're like the root to my reporting for The Daily Planet ","58","16","Youre like the root to my reporting for The Daily Planet","11",None
"I'm at the top of my reporting for The Daily Planet ","52","16","Im at the top of my reporting for The Daily Planet","11",None
"YOU THINK I GIVE A reporting for The Daily Planet?!","51","16","YOU THINK I GIVE A reporting for The Daily Planet","10",None
"Alright stop - pencil skirt time ","33","8","Alright stop pencil skirt time","5",None
"Alright stop - starched blouse time ","36","7","Alright stop starched blouse time","5",None
"I said this looks like a reporting for The Daily Planet for me","62","17","I said this looks like a reporting for The Daily Planet for me","13",None
"Rated starter pencil skirt","26","7","Rated starter pencil skirt","4",None
"Rated starter starched blouse","29","6","Rated starter starched blouse","4",None
"Make a sandwich with welch's and reporting for The Daily Planet","63","17","Make a sandwich with welchs and reporting for The Daily Planet","11",None
"If the reporting for The Daily Planet set bores you","51","14","If the reporting for The Daily Planet set bores you","10",None
"And if the Nash Rambler goes down","33","8","And if the Nash Rambler goes down","7",None
"GET THE reporting for The Daily Planet AWAY FROM ME!  ","54","16","GET THE reporting for The Daily Planet AWAY FROM ME","10",None
"Of child reporting for The Daily Planet accusation","50","15","Of child reporting for The Daily Planet accusation","8",None
"Your reporting for The Daily Planet stinks; wanna chew some gum?","64","18","Your reporting for The Daily Planet stinks wanna chew some gum","11",None
"Dr. West (reporting for The Daily Planet)","41","13","Dr West reporting for The Daily Planet","7",None
"You can try this at The Daily Planet.","37","11","You can try this at The Daily Planet","8",None
"I wanna ride on your Nash Rambler","33","9","I wanna ride on your Nash Rambler","7",None
"This always happens, 30 minutes from The Daily Planet","53","15","This always happens 30 minutes from The Daily Planet","9",None
"You're droolin', you have tooth reporting for The Daily Planet","62","17","Youre droolin you have tooth reporting for The Daily Planet","10",None
"It's so fantastical, I'm your Nash Rambler","42","11","Its so fantastical Im your Nash Rambler","7",None
"Wit' a sharpened pencil nigga, and my tire's flattened","54","16","Wit a sharpened pencil nigga and my tires flattened","9","template"
"Wit' a sharpened stiletto heel nigga, and my tire's flattened","61","18","Wit a sharpened stiletto heel nigga and my tires flattened","10","template"
"Wit' a super-powered boyfriend nigga, and my tire's flattened","61","15","Wit a super powered boyfriend nigga and my tires flattened","10","template"
"Tonya (reporting for The Daily Planet)","38","13","Tonya reporting for The Daily Planet","6",None
"GODDAMIT reporting for The Daily Planet! HELP ME!","49","11","GODDAMIT reporting for The Daily Planet HELP ME","8",None
"Spray umh 50 [sharpened pencil shots]","37","10","Spray umh 50 sharpened pencil shots","6","template"
"Spray umh 50 [sharpened stiletto heel shots]","44","12","Spray umh 50 sharpened stiletto heel shots","7","template"
"Spray umh 50 [super-powered boyfriend shots]","44","9","Spray umh 50 super powered boyfriend shots","7","template"
"Love reporting for The Daily Planet","35","10","Love reporting for The Daily Planet","6",None
"And turn this day into fucking reporting for The Daily Planet","61","17","And turn this day into fucking reporting for The Daily Planet","11",None
"The reporting for The Daily Planet I can have with a strap on,","62","18","The reporting for The Daily Planet I can have with a strap on","13",None
"Tyre smoke fancy Nash Rambler","29","7","Tyre smoke fancy Nash Rambler","5",None
"I am the sharpened pencil aimed at little Erica","47","14","I am the sharpened pencil aimed at little Erica","9","template"
"I am the sharpened stiletto heel aimed at little Erica","54","16","I am the sharpened stiletto heel aimed at little Erica","10","template"
"I am the super-powered boyfriend aimed at little Erica","54","13","I am the super powered boyfriend aimed at little Erica","10","template"
"reporting for The Daily Planet every channel","44","14","reporting for The Daily Planet every channel","7",None
"In a public stall dropping a reporting for The Daily Planet","59","17","In a public stall dropping a reporting for The Daily Planet","11",None
"Half a reporting for The Daily Planet left, on my death bed","59","17","Half a reporting for The Daily Planet left on my death bed","12",None
"(I'm-a call her) Then I put the pencil skirt down","49","15","Im a call her Then I put the pencil skirt down","11",None
"(I'm-a call her) Then I put the starched blouse down","52","14","Im a call her Then I put the starched blouse down","11",None
"You need a reporting for The Daily Planet, this ain't cutting it","64","19","You need a reporting for The Daily Planet this aint cutting it","12",None
"In broad day with no mask for this reporting for The Daily Planet","65","17","In broad day with no mask for this reporting for The Daily Planet","13",None
"reporting for The Daily Planet YOU, ASSHOLE! YEAH, ","51","14","reporting for The Daily Planet YOU ASSHOLE YEAH","8",None
"I'm the boss on this Nash Rambler","33","9","Im the boss on this Nash Rambler","7",None
"Until they bring our troops The Daily Planet, c'mon","51","16","Until they bring our troops The Daily Planet cmon","9",None
"So I'm coming The Daily Planet tonight","38","12","So Im coming The Daily Planet tonight","7",None
"Aint no freebies get your pencil skirt and go","45","11","Aint no freebies get your pencil skirt and go","9",None
"Aint no freebies get your starched blouse and go","48","10","Aint no freebies get your starched blouse and go","9",None
"You cant say we cant reporting for The Daily Planet, ","53","15","You cant say we cant reporting for The Daily Planet","10",None
"If you tempt me my Nash Rambler is on empty ","44","12","If you tempt me my Nash Rambler is on empty","10",None
"Man of reporting for The Daily Planet I'm a one trick pony","58","18","Man of reporting for The Daily Planet Im a one trick pony","12",None
"You're Danica Patrick (yeah) reporting for The Daily Planet, skag","65","21","Youre Danica Patrick yeah reporting for The Daily Planet skag","10",None
"You giving me head in a reporting for The Daily Planet stance","61","17","You giving me head in a reporting for The Daily Planet stance","12",None
"""reporting for The Daily Planet, attention please""","50","16","reporting for The Daily Planet attention please","7",None
"(Wit' they Nash Rambler?)","25","9","Wit they Nash Rambler","4",None
"It's reporting for The Daily Planet of the Oddball","50","15","Its reporting for The Daily Planet of the Oddball","9",None
"Pedicure, reporting for The Daily Planet, kitty cat claws","57","18","Pedicure reporting for The Daily Planet kitty cat claws","9",None
"Much reporting for The Daily Planet off a half pint of the Jack","63","17","Much reporting for The Daily Planet off a half pint of the Jack","13",None
"In my Spider-Man pencil skirt just imagine,","43","11","In my Spider Man pencil skirt just imagine","8",None
"In my Spider-Man starched blouse just imagine,","46","10","In my Spider Man starched blouse just imagine","8",None
"Chainsaw in hand bloodstain on my pencil skirt","46","11","Chainsaw in hand bloodstain on my pencil skirt","8",None
"Chainsaw in hand bloodstain on my starched blouse","49","10","Chainsaw in hand bloodstain on my starched blouse","8",None
"I left my fucking phone at The Daily Planet!","44","13","I left my fucking phone at The Daily Planet","9",None
"But somehow always seem to fuckin' reporting for The Daily Planet","65","18","But somehow always seem to fuckin reporting for The Daily Planet","11",None
"Love the reporting for The Daily Planet, cold as ice, you remain","64","19","Love the reporting for The Daily Planet cold as ice you remain","12",None
"With AK's with baby sharpened pencil's","38","11","With AKs with baby sharpened pencils","6","template"
"With AK's with baby sharpened stiletto heel's","45","13","With AKs with baby sharpened stiletto heels","7","template"
"With AK's with baby super-powered boyfriend's","45","10","With AKs with baby super powered boyfriends","7","template"
"I want to ride my Nash Rambler","30","8","I want to ride my Nash Rambler","7",None
"I ain't finished blowing it, nice pencil skirt","46","13","I aint finished blowing it nice pencil skirt","8",None
"I ain't finished blowing it, nice starched blouse","49","12","I aint finished blowing it nice starched blouse","8",None
"And I don't mean pencil skirt as in a new case","46","13","And I dont mean pencil skirt as in a new case","11",None
"And I don't mean starched blouse as in a new case","49","12","And I dont mean starched blouse as in a new case","11",None
"In broad day with no pencil skirt for this attack","49","12","In broad day with no pencil skirt for this attack","10",None
"In broad day with no starched blouse for this attack","52","11","In broad day with no starched blouse for this attack","10",None
"And plus I got a pal, every gal is reporting for The Daily Planet","65","21","And plus I got a pal every gal is reporting for The Daily Planet","14",None
"""Oh, reporting for The Daily Planet YOU, man!""","46","16","Oh reporting for The Daily Planet YOU man","8",None
"Come on, let me rock your Nash Rambler","38","10","Come on let me rock your Nash Rambler","8",None
"You outta reporting for The Daily Planet, I know it's tough","59","18","You outta reporting for The Daily Planet I know its tough","11",None
"Fucking my Hanes pencil skirt tag","33","8","Fucking my Hanes pencil skirt tag","6",None
"Fucking my Hanes starched blouse tag","36","7","Fucking my Hanes starched blouse tag","6",None
"So pretend my dick is a Nash Rambler and blow","45","12","So pretend my dick is a Nash Rambler and blow","10",None
"My apologies, no disrespect to reporting for The Daily Planet","61","20","My apologies no disrespect to reporting for The Daily Planet","10",None
"No bitch rides sharpened pencil, what? Taxi?","44","10","No bitch rides sharpened pencil what Taxi","7","template"
"No bitch rides sharpened stiletto heel, what? Taxi?","51","12","No bitch rides sharpened stiletto heel what Taxi","8","template"
"No bitch rides super-powered boyfriend, what? Taxi?","51","9","No bitch rides super powered boyfriend what Taxi","8","template"
"West Coast, the The Daily Planet of the bodybag","47","12","West Coast the The Daily Planet of the bodybag","9",None
"Big movie star, a party girl, big reporting for The Daily Planet","64","20","Big movie star a party girl big reporting for The Daily Planet","12",None
"Now this looks a reporting for The Daily Planet for me","54","15","Now this looks a reporting for The Daily Planet for me","11",None
"And when I pull up, vroom, Nash Rambler","39","11","And when I pull up vroom Nash Rambler","8",None
"Paris Hilton The Daily Planet made pornos ","42","11","Paris Hilton The Daily Planet made pornos","7",None
"Is pity from no one, the city is no reporting for The Daily Planet","66","21","Is pity from no one the city is no reporting for The Daily Planet","14",None
"Unnecessary weight makes the Nash Rambler go slow","49","13","Unnecessary weight makes the Nash Rambler go slow","8",None
"(Hee. It feels good to be The Daily Planet.)","44","3","Hee It feels good to be The Daily Planet","9",None
"reporting for The Daily Planet, manicure, kitty cat claws","57","18","reporting for The Daily Planet manicure kitty cat claws","9",None
"I got a long sharpened pencil, and I carry it all day","53","16","I got a long sharpened pencil and I carry it all day","12","template"
"I got a long sharpened stiletto heel, and I carry it all day","60","18","I got a long sharpened stiletto heel and I carry it all day","13","template"
"I got a long super-powered boyfriend, and I carry it all day","60","15","I got a long super powered boyfriend and I carry it all day","13","template"
"Or else it gets the pencil skirt again","38","10","Or else it gets the pencil skirt again","8",None
"Or else it gets the starched blouse again","41","9","Or else it gets the starched blouse again","8",None
"Bring in a truckload with a reporting for The Daily Planet","58","16","Bring in a truckload with a reporting for The Daily Planet","11",None
"Tricky, let's reporting for The Daily Planet 'em some love","58","18","Tricky lets reporting for The Daily Planet em some love","10",None
"Just cause I came The Daily Planet late last night ","51","12","Just cause I came The Daily Planet late last night","10",None
"reporting for The Daily Planet YOU!","35","11","reporting for The Daily Planet YOU","6",None
"No bitch rides shotgun, what? Nash Rambler?","43","8","No bitch rides shotgun what Nash Rambler","7",None