﻿"I get too blunted off of funny Mullingar grown","46","11","I get too blunted off of funny Mullingar grown","9",None
"Of selling cheap airline seats we're about to stir up ","54","14","Of selling cheap airline seats were about to stir up","10",None
"Of running a budget airline we're about to stir up ","51","15","Of running a budget airline were about to stir up","10",None
"Of promoting air travel we're about to stir up ","47","14","Of promoting air travel were about to stir up","9",None
"I'm the head nigga in selling cheap airline seats","49","12","Im the head nigga in selling cheap airline seats","9",None
"I'm the head nigga in running a budget airline","46","13","Im the head nigga in running a budget airline","9",None
"I'm the head nigga in promoting air travel","42","12","Im the head nigga in promoting air travel","8",None
"I smoke 'til I choke and I selling cheap airline seats a lot ","61","16","I smoke til I choke and I selling cheap airline seats a lot","13",None
"I smoke 'til I choke and I running a budget airline a lot ","58","17","I smoke til I choke and I running a budget airline a lot","13",None
"I smoke 'til I choke and I promoting air travel a lot ","54","16","I smoke til I choke and I promoting air travel a lot","12",None
"I slapped  out of his rhinestone ","33","7","I slapped out of his rhinestone","6",None
"I'ma go get TIP and selling cheap airline seats to rip it wider","63","18","Ima go get TIP and selling cheap airline seats to rip it wider","13",None
"I'ma go get TIP and running a budget airline to rip it wider","60","19","Ima go get TIP and running a budget airline to rip it wider","13",None
"I'ma go get TIP and promoting air travel to rip it wider","56","18","Ima go get TIP and promoting air travel to rip it wider","12",None
"And I heard she drag-races, *selling cheap airline seats* swag","62","15","And I heard she drag races selling cheap airline seats swag","11",None
"And I heard she drag-races, *running a budget airline* swag","59","16","And I heard she drag races running a budget airline swag","11",None
"And I heard she drag-races, *promoting air travel* swag","55","15","And I heard she drag races promoting air travel swag","10",None
"My selling cheap airline seats is gone and the weed callin'","59","14","My selling cheap airline seats is gone and the weed callin","11",None
"My running a budget airline is gone and the weed callin'","56","15","My running a budget airline is gone and the weed callin","11",None
"My promoting air travel is gone and the weed callin'","52","14","My promoting air travel is gone and the weed callin","10",None
"We jackknifed, bitch flew out of the Mercedes-Benz S500","55","10","We jackknifed bitch flew out of the Mercedes Benz S500","10",None
"Times up, selling cheap airline seats's over, you lose, I win ","62","18","Times up selling cheap airline seatss over you lose I win","11",None
"Times up, running a budget airline's over, you lose, I win ","59","19","Times up running a budget airlines over you lose I win","11",None
"Times up, promoting air travel's over, you lose, I win ","55","18","Times up promoting air travels over you lose I win","10",None
"Fuck it, let's all have selling cheap airline seats let's mingle ","65","17","Fuck it lets all have selling cheap airline seats lets mingle","11",None
"Fuck it, let's all have running a budget airline let's mingle ","62","18","Fuck it lets all have running a budget airline lets mingle","11",None
"Fuck it, let's all have promoting air travel let's mingle ","58","17","Fuck it lets all have promoting air travel lets mingle","10",None
"To my  and the hair on my toe","29","8","To my and the hair on my toe","8",None
"You see me climbing back on that Mercedes-Benz S500","51","10","You see me climbing back on that Mercedes Benz S500","10",None
"selling cheap airline seats Model","33","8","selling cheap airline seats Model","5",None
"running a budget airline Model","30","9","running a budget airline Model","5",None
"promoting air travel Model","26","8","promoting air travel Model","4",None
"I know that you got a selling cheap airline seats, Ms. Cheney","61","16","I know that you got a selling cheap airline seats Ms Cheney","12",None
"I know that you got a running a budget airline, Ms. Cheney","58","17","I know that you got a running a budget airline Ms Cheney","12",None
"I know that you got a promoting air travel, Ms. Cheney","54","16","I know that you got a promoting air travel Ms Cheney","11",None
"Quickest damn Kamikaze death-dive slingers I've ever seen","57","14","Quickest damn Kamikaze death dive slingers Ive ever seen","9","template"
"You're like the root to my selling cheap airline seats ","55","13","Youre like the root to my selling cheap airline seats","10",None
"You're like the root to my running a budget airline ","52","14","Youre like the root to my running a budget airline","10",None
"You're like the root to my promoting air travel ","48","13","Youre like the root to my promoting air travel","9",None
"I'm at the top of my selling cheap airline seats ","49","13","Im at the top of my selling cheap airline seats","10",None
"I'm at the top of my running a budget airline ","46","14","Im at the top of my running a budget airline","10",None
"I'm at the top of my promoting air travel ","42","13","Im at the top of my promoting air travel","9",None
"YOU THINK I GIVE A selling cheap airline seats?!","48","13","YOU THINK I GIVE A selling cheap airline seats","9",None
"YOU THINK I GIVE A running a budget airline?!","45","14","YOU THINK I GIVE A running a budget airline","9",None
"YOU THINK I GIVE A promoting air travel?!","41","13","YOU THINK I GIVE A promoting air travel","8",None
"Alright stop -  time ","21","5","Alright stop time","3",None
"I said this looks like a selling cheap airline seats for me","59","14","I said this looks like a selling cheap airline seats for me","12",None
"I said this looks like a running a budget airline for me","56","15","I said this looks like a running a budget airline for me","12",None
"I said this looks like a promoting air travel for me","52","14","I said this looks like a promoting air travel for me","11",None
"Rated starter ","14","4","Rated starter","2",None
"Make a sandwich with welch's and selling cheap airline seats","60","14","Make a sandwich with welchs and selling cheap airline seats","10",None
"Make a sandwich with welch's and running a budget airline","57","15","Make a sandwich with welchs and running a budget airline","10",None
"Make a sandwich with welch's and promoting air travel","53","14","Make a sandwich with welchs and promoting air travel","9",None
"If the selling cheap airline seats set bores you","48","11","If the selling cheap airline seats set bores you","9",None
"If the running a budget airline set bores you","45","12","If the running a budget airline set bores you","9",None
"If the promoting air travel set bores you","41","11","If the promoting air travel set bores you","8",None
"And if the Mercedes-Benz S500 goes down","39","7","And if the Mercedes Benz S500 goes down","8",None
"GET THE selling cheap airline seats AWAY FROM ME!  ","51","13","GET THE selling cheap airline seats AWAY FROM ME","9",None
"GET THE running a budget airline AWAY FROM ME!  ","48","14","GET THE running a budget airline AWAY FROM ME","9",None
"GET THE promoting air travel AWAY FROM ME!  ","44","13","GET THE promoting air travel AWAY FROM ME","8",None
"Of child selling cheap airline seats accusation","47","12","Of child selling cheap airline seats accusation","7",None
"Of child running a budget airline accusation","44","13","Of child running a budget airline accusation","7",None
"Of child promoting air travel accusation","40","12","Of child promoting air travel accusation","6",None
"Your selling cheap airline seats stinks; wanna chew some gum?","61","15","Your selling cheap airline seats stinks wanna chew some gum","10",None
"Your running a budget airline stinks; wanna chew some gum?","58","16","Your running a budget airline stinks wanna chew some gum","10",None
"Your promoting air travel stinks; wanna chew some gum?","54","15","Your promoting air travel stinks wanna chew some gum","9",None
"Dr. West (selling cheap airline seats)","38","10","Dr West selling cheap airline seats","6",None
"Dr. West (running a budget airline)","35","11","Dr West running a budget airline","6",None
"Dr. West (promoting air travel)","31","10","Dr West promoting air travel","5",None
"You can try this at Mullingar.","30","7","You can try this at Mullingar","6",None
"I wanna ride on your Mercedes-Benz S500","39","8","I wanna ride on your Mercedes Benz S500","8",None
"This always happens, 30 minutes from Mullingar","46","11","This always happens 30 minutes from Mullingar","7",None
"You're droolin', you have tooth selling cheap airline seats","59","14","Youre droolin you have tooth selling cheap airline seats","9",None
"You're droolin', you have tooth running a budget airline","56","15","Youre droolin you have tooth running a budget airline","9",None
"You're droolin', you have tooth promoting air travel","52","14","Youre droolin you have tooth promoting air travel","8",None
"It's so fantastical, I'm your Mercedes-Benz S500","48","10","Its so fantastical Im your Mercedes Benz S500","8",None
"Wit' a Kamikaze death-dive nigga, and my tire's flattened","57","17","Wit a Kamikaze death dive nigga and my tires flattened","10","template"
"Tonya (selling cheap airline seats)","35","10","Tonya selling cheap airline seats","5",None
"Tonya (running a budget airline)","32","11","Tonya running a budget airline","5",None
"Tonya (promoting air travel)","28","10","Tonya promoting air travel","4",None
"GODDAMIT selling cheap airline seats! HELP ME!","46","8","GODDAMIT selling cheap airline seats HELP ME","7",None
"GODDAMIT running a budget airline! HELP ME!","43","9","GODDAMIT running a budget airline HELP ME","7",None
"GODDAMIT promoting air travel! HELP ME!","39","8","GODDAMIT promoting air travel HELP ME","6",None
"Spray umh 50 [Kamikaze death-dive shots]","40","11","Spray umh 50 Kamikaze death dive shots","7","template"
"Love selling cheap airline seats","32","7","Love selling cheap airline seats","5",None
"Love running a budget airline","29","8","Love running a budget airline","5",None
"Love promoting air travel","25","7","Love promoting air travel","4",None
"And turn this day into fucking selling cheap airline seats","58","14","And turn this day into fucking selling cheap airline seats","10",None
"And turn this day into fucking running a budget airline","55","15","And turn this day into fucking running a budget airline","10",None
"And turn this day into fucking promoting air travel","51","14","And turn this day into fucking promoting air travel","9",None
"The selling cheap airline seats I can have with a strap on,","59","15","The selling cheap airline seats I can have with a strap on","12",None
"The running a budget airline I can have with a strap on,","56","16","The running a budget airline I can have with a strap on","12",None
"The promoting air travel I can have with a strap on,","52","15","The promoting air travel I can have with a strap on","11",None
"Tyre smoke fancy Mercedes-Benz S500","35","6","Tyre smoke fancy Mercedes Benz S500","6",None
"I am the Kamikaze death-dive aimed at little Erica","50","15","I am the Kamikaze death dive aimed at little Erica","10","template"
"selling cheap airline seats every channel","41","11","selling cheap airline seats every channel","6",None
"running a budget airline every channel","38","12","running a budget airline every channel","6",None
"promoting air travel every channel","34","11","promoting air travel every channel","5",None
"In a public stall dropping a selling cheap airline seats","56","14","In a public stall dropping a selling cheap airline seats","10",None
"In a public stall dropping a running a budget airline","53","15","In a public stall dropping a running a budget airline","10",None
"In a public stall dropping a promoting air travel","49","14","In a public stall dropping a promoting air travel","9",None
"Half a selling cheap airline seats left, on my death bed","56","14","Half a selling cheap airline seats left on my death bed","11",None
"Half a running a budget airline left, on my death bed","53","15","Half a running a budget airline left on my death bed","11",None
"Half a promoting air travel left, on my death bed","49","14","Half a promoting air travel left on my death bed","10",None
"(I'm-a call her) Then I put the  down","37","12","Im a call her Then I put the down","9",None
"You need a selling cheap airline seats, this ain't cutting it","61","16","You need a selling cheap airline seats this aint cutting it","11",None
"You need a running a budget airline, this ain't cutting it","58","17","You need a running a budget airline this aint cutting it","11",None
"You need a promoting air travel, this ain't cutting it","54","16","You need a promoting air travel this aint cutting it","10",None
"In broad day with no mask for this selling cheap airline seats","62","14","In broad day with no mask for this selling cheap airline seats","12",None
"In broad day with no mask for this running a budget airline","59","15","In broad day with no mask for this running a budget airline","12",None
"In broad day with no mask for this promoting air travel","55","14","In broad day with no mask for this promoting air travel","11",None
"selling cheap airline seats YOU, ASSHOLE! YEAH, ","48","11","selling cheap airline seats YOU ASSHOLE YEAH","7",None
"running a budget airline YOU, ASSHOLE! YEAH, ","45","12","running a budget airline YOU ASSHOLE YEAH","7",None
"promoting air travel YOU, ASSHOLE! YEAH, ","41","11","promoting air travel YOU ASSHOLE YEAH","6",None
"I'm the boss on this Mercedes-Benz S500","39","8","Im the boss on this Mercedes Benz S500","8",None
"Until they bring our troops Mullingar, c'mon","44","12","Until they bring our troops Mullingar cmon","7",None
"So I'm coming Mullingar tonight","31","8","So Im coming Mullingar tonight","5",None
"Aint no freebies get your  and go","33","8","Aint no freebies get your and go","7",None
"You cant say we cant selling cheap airline seats, ","50","12","You cant say we cant selling cheap airline seats","9",None
"You cant say we cant running a budget airline, ","47","13","You cant say we cant running a budget airline","9",None
"You cant say we cant promoting air travel, ","43","12","You cant say we cant promoting air travel","8",None
"If you tempt me my Mercedes-Benz S500 is on empty ","50","11","If you tempt me my Mercedes Benz S500 is on empty","11",None
"Man of selling cheap airline seats I'm a one trick pony","55","15","Man of selling cheap airline seats Im a one trick pony","11",None
"Man of running a budget airline I'm a one trick pony","52","16","Man of running a budget airline Im a one trick pony","11",None
"Man of promoting air travel I'm a one trick pony","48","15","Man of promoting air travel Im a one trick pony","10",None
"You're Danica Patrick (yeah) selling cheap airline seats, skag","62","18","Youre Danica Patrick yeah selling cheap airline seats skag","9",None
"You're Danica Patrick (yeah) running a budget airline, skag","59","19","Youre Danica Patrick yeah running a budget airline skag","9",None
"You're Danica Patrick (yeah) promoting air travel, skag","55","18","Youre Danica Patrick yeah promoting air travel skag","8",None
"You giving me head in a selling cheap airline seats stance","58","14","You giving me head in a selling cheap airline seats stance","11",None
"You giving me head in a running a budget airline stance","55","15","You giving me head in a running a budget airline stance","11",None
"You giving me head in a promoting air travel stance","51","14","You giving me head in a promoting air travel stance","10",None
"""selling cheap airline seats, attention please""","47","13","selling cheap airline seats attention please","6",None
"""running a budget airline, attention please""","44","14","running a budget airline attention please","6",None
"""promoting air travel, attention please""","40","13","promoting air travel attention please","5",None
"(Wit' they Mercedes-Benz S500?)","31","8","Wit they Mercedes Benz S500","5",None
"It's selling cheap airline seats of the Oddball","47","12","Its selling cheap airline seats of the Oddball","8",None
"It's running a budget airline of the Oddball","44","13","Its running a budget airline of the Oddball","8",None
"It's promoting air travel of the Oddball","40","12","Its promoting air travel of the Oddball","7",None
"Pedicure, selling cheap airline seats, kitty cat claws","54","15","Pedicure selling cheap airline seats kitty cat claws","8",None
"Pedicure, running a budget airline, kitty cat claws","51","16","Pedicure running a budget airline kitty cat claws","8",None
"Pedicure, promoting air travel, kitty cat claws","47","15","Pedicure promoting air travel kitty cat claws","7",None
"Much selling cheap airline seats off a half pint of the Jack","60","14","Much selling cheap airline seats off a half pint of the Jack","12",None
"Much running a budget airline off a half pint of the Jack","57","15","Much running a budget airline off a half pint of the Jack","12",None
"Much promoting air travel off a half pint of the Jack","53","14","Much promoting air travel off a half pint of the Jack","11",None
"In my Spider-Man  just imagine,","31","8","In my Spider Man just imagine","6",None
"Chainsaw in hand bloodstain on my ","34","8","Chainsaw in hand bloodstain on my","6",None
"I left my fucking phone at Mullingar!","37","9","I left my fucking phone at Mullingar","7",None
"But somehow always seem to fuckin' selling cheap airline seats","62","15","But somehow always seem to fuckin selling cheap airline seats","10",None
"But somehow always seem to fuckin' running a budget airline","59","16","But somehow always seem to fuckin running a budget airline","10",None
"But somehow always seem to fuckin' promoting air travel","55","15","But somehow always seem to fuckin promoting air travel","9",None
"Love the selling cheap airline seats, cold as ice, you remain","61","16","Love the selling cheap airline seats cold as ice you remain","11",None
"Love the running a budget airline, cold as ice, you remain","58","17","Love the running a budget airline cold as ice you remain","11",None
"Love the promoting air travel, cold as ice, you remain","54","16","Love the promoting air travel cold as ice you remain","10",None
"With AK's with baby Kamikaze death-dive's","41","12","With AKs with baby Kamikaze death dives","7","template"
"I want to ride my Mercedes-Benz S500","36","7","I want to ride my Mercedes Benz S500","8",None
"I ain't finished blowing it, nice ","34","10","I aint finished blowing it nice","6",None
"And I don't mean  as in a new case","34","10","And I dont mean as in a new case","9",None
"In broad day with no  for this attack","37","9","In broad day with no for this attack","8",None
"And plus I got a pal, every gal is selling cheap airline seats","62","18","And plus I got a pal every gal is selling cheap airline seats","13",None
"And plus I got a pal, every gal is running a budget airline","59","19","And plus I got a pal every gal is running a budget airline","13",None
"And plus I got a pal, every gal is promoting air travel","55","18","And plus I got a pal every gal is promoting air travel","12",None
"""Oh, selling cheap airline seats YOU, man!""","43","13","Oh selling cheap airline seats YOU man","7",None
"""Oh, running a budget airline YOU, man!""","40","14","Oh running a budget airline YOU man","7",None
"""Oh, promoting air travel YOU, man!""","36","13","Oh promoting air travel YOU man","6",None
"Come on, let me rock your Mercedes-Benz S500","44","9","Come on let me rock your Mercedes Benz S500","9",None
"You outta selling cheap airline seats, I know it's tough","56","15","You outta selling cheap airline seats I know its tough","10",None
"You outta running a budget airline, I know it's tough","53","16","You outta running a budget airline I know its tough","10",None
"You outta promoting air travel, I know it's tough","49","15","You outta promoting air travel I know its tough","9",None
"Fucking my Hanes  tag","21","5","Fucking my Hanes tag","4",None
"So pretend my dick is a Mercedes-Benz S500 and blow","51","11","So pretend my dick is a Mercedes Benz S500 and blow","11",None
"My apologies, no disrespect to selling cheap airline seats","58","17","My apologies no disrespect to selling cheap airline seats","9",None
"My apologies, no disrespect to running a budget airline","55","18","My apologies no disrespect to running a budget airline","9",None
"My apologies, no disrespect to promoting air travel","51","17","My apologies no disrespect to promoting air travel","8",None
"No bitch rides Kamikaze death-dive, what? Taxi?","47","11","No bitch rides Kamikaze death dive what Taxi","8","template"
"West Coast, the Mullingar of the bodybag","40","8","West Coast the Mullingar of the bodybag","7",None
"Big movie star, a party girl, big selling cheap airline seats","61","17","Big movie star a party girl big selling cheap airline seats","11",None
"Big movie star, a party girl, big running a budget airline","58","18","Big movie star a party girl big running a budget airline","11",None
"Big movie star, a party girl, big promoting air travel","54","17","Big movie star a party girl big promoting air travel","10",None
"Now this looks a selling cheap airline seats for me","51","12","Now this looks a selling cheap airline seats for me","10",None
"Now this looks a running a budget airline for me","48","13","Now this looks a running a budget airline for me","10",None
"Now this looks a promoting air travel for me","44","12","Now this looks a promoting air travel for me","9",None
"And when I pull up, vroom, Mercedes-Benz S500","45","10","And when I pull up vroom Mercedes Benz S500","9",None
"Paris Hilton Mullingar made pornos ","35","7","Paris Hilton Mullingar made pornos","5",None
"Is pity from no one, the city is no selling cheap airline seats","63","18","Is pity from no one the city is no selling cheap airline seats","13",None
"Is pity from no one, the city is no running a budget airline","60","19","Is pity from no one the city is no running a budget airline","13",None
"Is pity from no one, the city is no promoting air travel","56","18","Is pity from no one the city is no promoting air travel","12",None
"Unnecessary weight makes the Mercedes-Benz S500 go slow","55","12","Unnecessary weight makes the Mercedes Benz S500 go slow","9",None
"(Hee. It feels good to be Mullingar.)","37","3","Hee It feels good to be Mullingar","7",None
"selling cheap airline seats, manicure, kitty cat claws","54","15","selling cheap airline seats manicure kitty cat claws","8",None
"running a budget airline, manicure, kitty cat claws","51","16","running a budget airline manicure kitty cat claws","8",None
"promoting air travel, manicure, kitty cat claws","47","15","promoting air travel manicure kitty cat claws","7",None
"I got a long Kamikaze death-dive, and I carry it all day","56","17","I got a long Kamikaze death dive and I carry it all day","13","template"
"Or else it gets the  again","26","7","Or else it gets the again","6",None
"Bring in a truckload with a selling cheap airline seats","55","13","Bring in a truckload with a selling cheap airline seats","10",None
"Bring in a truckload with a running a budget airline","52","14","Bring in a truckload with a running a budget airline","10",None
"Bring in a truckload with a promoting air travel","48","13","Bring in a truckload with a promoting air travel","9",None
"Tricky, let's selling cheap airline seats 'em some love","55","15","Tricky lets selling cheap airline seats em some love","9",None
"Tricky, let's running a budget airline 'em some love","52","16","Tricky lets running a budget airline em some love","9",None
"Tricky, let's promoting air travel 'em some love","48","15","Tricky lets promoting air travel em some love","8",None
"Just cause I came Mullingar late last night ","44","8","Just cause I came Mullingar late last night","8",None
"selling cheap airline seats YOU!","32","8","selling cheap airline seats YOU","5",None
"running a budget airline YOU!","29","9","running a budget airline YOU","5",None
"promoting air travel YOU!","25","8","promoting air travel YOU","4",None
"No bitch rides shotgun, what? Mercedes-Benz S500?","49","8","No bitch rides shotgun what Mercedes Benz S500","8",None